R Kubernetes Deployment - Model Card: H2O Stacking Ensemble
…
The evaluation dataset used in this model card is …

We chose this evaluation data because …

Quantitative analyses

Attaching package: 'probably'

The following objects are masked from 'package:base':

    as.factor, as.ordered

# A tibble: 28 × 14
   .pred .pred_lower .pred_upper   mpg   cyl  disp    hp  drat    wt  qsec    vs
 * <dbl>       <dbl>       <dbl> <dbl> <dbl> <dbl> <dbl> <dbl> <dbl> <dbl> <dbl>
 1  23.3       17.4         29.2  21.5     4 120.     97  3.7   2.46  20.0     1
 2  16.5       10.6         22.4  18.7     8 360     175  3.15  3.44  17.0     0
 3  26.8       20.9         32.7  27.3     4  79      66  4.08  1.94  18.9     1
 4  12.3        6.43        18.2  14.7     8 440     230  3.23  5.34  17.4     0
 5  15.9       10.0         21.8  15.2     8 276.    180  3.07  3.78  18       0
 6  20.1       14.2         26.0  19.7     6 145     175  3.62  2.77  15.5     0
 7  22.9       17.0         28.8  24.4     4 147.     62  3.69  3.19  20       1
 8  20.1       14.1         26.0  17.8     6 168.    123  3.92  3.44  18.9     1
 9  26.5       20.6         32.4  32.4     4  78.7    66  4.08  2.2   19.5     1
10  27.6       21.7         33.5  30.4     4  75.7    52  4.93  1.62  18.5     1
# ℹ 18 more rows
# ℹ 3 more variables: am <dbl>, gear <dbl>, carb <dbl>
…
