R Kubernetes Deployment - H2O Deployment
…
Results

We next view the results of the AutoML algorithm.

rank_results(auto_fit) |>
  filter(.metric == "mae") |>
  arrange(rank)

# A tibble: 32 × 5
   id                                              algorithm .metric  mean  rank
   <chr>                                           <chr>     <chr>   <dbl> <int>
 1 XGBoost_grid_1_AutoML_5_20250503_172402_model_2 xgboost   mae      1.85     1
 2 DRF_1_AutoML_5_20250503_172402                  random f… mae      1.90     2
 3 XGBoost_3_AutoML_5_20250503_172402              xgboost   mae      1.93     3
 4 GLM_1_AutoML_5_20250503_172402                  glm       mae      1.94     4
 5 GBM_grid_1_AutoML_5_20250503_172402_model_8     gradient… mae      2.01     5
 6 GBM_grid_1_AutoML_5_20250503_172402_model_2     gradient… mae      2.12     6
 7 GBM_grid_1_AutoML_5_20250503_172402_model_7     gradient… mae      2.15     7
 8 StackedEnsemble_AllModels_1_AutoML_5_20250503_… stacking  mae      2.17     8
 9 XRT_1_AutoML_5_20250503_172402                  random f… mae      2.20     9
10 XGBoost_grid_1_AutoML_5_20250503_172402_model_1 xgboost   mae      2.25    10
# ℹ 22 more rows
…
