R Kubernetes Deployment - Stan Deployment
…
Warning: 4 of 4000 (0.0%) transitions ended with a divergence.
See https://mc-stan.org/misc/warnings for details.

fit_stan$summary()

# A tibble: 93 × 10
   variable       mean   median      sd     mad       q5      q95  rhat ess_bulk
   <chr>         <dbl>    <dbl>   <dbl>   <dbl>    <dbl>    <dbl> <dbl>    <dbl>
 1 lp__       -3.11e+2 -3.10e+2   4.38    4.26  -318.    -304.    1.00     1123.
 2 alpha_ult…  4.97e+3  4.96e+3 262.    259.    4549.    5419.    1.00     1766.
 3 alpha_ult…  1.01e+2  1.00e+2  31.6    22.8     53.3    148.    1.00     2859.
 4 alpha_ult… -5.42e-4 -1.15e-2   1.00    0.980   -1.66     1.67  1.00     4032.
 5 beta_ult_…  3.00e+2  3.00e+2  50.4    51.7    217.     383.    0.999    5212.
 6 beta_ult_…  5.38e+2  5.15e+2 140.    122.     356.     791.    1.00     1498.
 7 beta_ult_… -2.46e+0 -2.41e+0   0.660   0.647   -3.58    -1.46  1.00     1399.
 8 beta_ult_…  2.44e-1  2.38e-1   0.383   0.373   -0.368    0.892 1.00     1370.
 9 beta_ult_…  1.56e-1  1.54e-1   0.384   0.374   -0.482    0.791 1.00     1449.
10 beta_ult_…  5.41e-1  5.29e-1   0.417   0.406   -0.121    1.24  1.00     1335.
# ℹ 83 more rows
# ℹ 1 more variable: ess_tail <dbl>
…
